[
  {
    "id": 2775378, 
    "name": "илья богатырев", 
    "photo": "http://cs303415.vk.me/u2775378/d_26df0c91.jpg", 
    "pred": 1, 
    "proba": 0.94999999999999996
  }, 
  {
    "id": 198298745, 
    "name": "павел радионов", 
    "photo": "http://cs630623.vk.me/v630623745/3a2c4/1saje-gzvn8.jpg", 
    "pred": 1, 
    "proba": 0.94999999999999996
  }, 
  {
    "id": 253486041, 
    "name": "григорий владимирович", 
    "photo": "http://cs604522.vk.me/v604522041/21bd3/zxijqrxyi2m.jpg", 
    "pred": 1, 
    "proba": 0.94999999999999996
  }, 
  {
    "id": 6125131, 
    "name": "саня шейкин", 
    "photo": "http://cs629312.vk.me/v629312131/13759/78kwjai-jo0.jpg", 
    "pred": 1, 
    "proba": 0.90000000000000002
  }, 
  {
    "id": 7856186, 
    "name": "дмитрий литичевский", 
    "photo": "http://cs620026.vk.me/v620026186/cc27/tttzhgdrbpg.jpg", 
    "pred": 1, 
    "proba": 0.90000000000000002
  }, 
  {
    "id": 3889524, 
    "name": "егор ткаченко", 
    "photo": "http://cs633329.vk.me/v633329524/32088/5as6m4uihve.jpg", 
    "pred": 1, 
    "proba": 0.84999999999999998
  }, 
  {
    "id": 9476438, 
    "name": "алексей пушилин", 
    "photo": "http://cs406825.vk.me/u9476438/d_838d7477.jpg", 
    "pred": 1, 
    "proba": 0.84999999999999998
  }, 
  {
    "id": 10263272, 
    "name": "илья гундерин", 
    "photo": "http://cs626831.vk.me/v626831272/1a40b/ajp08uuqb8c.jpg", 
    "pred": 1, 
    "proba": 0.84999999999999998
  }, 
  {
    "id": 10483592, 
    "name": "владимир глазырин", 
    "photo": "http://cs626729.vk.me/v626729592/cc57/-b8g3rgho-y.jpg", 
    "pred": 1, 
    "proba": 0.84999999999999998
  }, 
  {
    "id": 20722908, 
    "name": "владимир сурин", 
    "photo": "http://cs310231.vk.me/v310231908/59f/vchqthztefk.jpg", 
    "pred": 1, 
    "proba": 0.84999999999999998
  }, 
  {
    "id": 22868231, 
    "name": "михаил терпугов", 
    "photo": "http://cs636819.vk.me/v636819231/28345/gaf8tkkh70g.jpg", 
    "pred": 1, 
    "proba": 0.84999999999999998
  }, 
  {
    "id": 79399644, 
    "name": "егор шумаков", 
    "photo": "http://cs626218.vk.me/v626218644/2368d/twp5n3auo5w.jpg", 
    "pred": 1, 
    "proba": 0.84999999999999998
  }, 
  {
    "id": 139693538, 
    "name": "максим бородин", 
    "photo": "http://cs629515.vk.me/v629515538/20f8c/xrb1f24czao.jpg", 
    "pred": 1, 
    "proba": 0.84999999999999998
  }, 
  {
    "id": 207837692, 
    "name": "вячеслав стеблецов", 
    "photo": "http://cs622331.vk.me/v622331692/45a08/v3kgtqllhae.jpg", 
    "pred": 1, 
    "proba": 0.81874999999999998
  }, 
  {
    "id": 95118, 
    "name": "ринат гайнетдинов", 
    "photo": "http://cs5817.vk.me/u95118/d_8e01a579.jpg", 
    "pred": 1, 
    "proba": 0.80000000000000004
  }, 
  {
    "id": 1210531, 
    "name": "евгений жадан", 
    "photo": "http://cs836137.vk.me/v836137531/5c9c/y0sshuqdfmy.jpg", 
    "pred": 1, 
    "proba": 0.80000000000000004
  }, 
  {
    "id": 2443957, 
    "name": "тимофей михеев-бельский", 
    "photo": "http://cs637324.vk.me/v637324957/13e13/rgdkgrkzn4e.jpg", 
    "pred": 1, 
    "proba": 0.80000000000000004
  }, 
  {
    "id": 4133101, 
    "name": "алексей йескела", 
    "photo": "http://cs629400.vk.me/v629400101/45cae/kojulfphhgw.jpg", 
    "pred": 1, 
    "proba": 0.80000000000000004
  }, 
  {
    "id": 4765581, 
    "name": "егор ильин", 
    "photo": "http://cs625828.vk.me/v625828581/2590c/sfmr075kjz8.jpg", 
    "pred": 1, 
    "proba": 0.80000000000000004
  }, 
  {
    "id": 13050178, 
    "name": "сергей федосеев", 
    "photo": "http://cs624324.vk.me/v624324178/26bc4/tynyep8q6dm.jpg", 
    "pred": 1, 
    "proba": 0.80000000000000004
  }, 
  {
    "id": 1018674, 
    "name": "иван апполонов", 
    "photo": "http://cs628623.vk.me/v628623674/2f834/13wqn3-3xmi.jpg", 
    "pred": 1, 
    "proba": 0.75
  }, 
  {
    "id": 1285713, 
    "name": "виталий нелюбин", 
    "photo": "http://cs628027.vk.me/v628027713/432b0/snta4xleqss.jpg", 
    "pred": 1, 
    "proba": 0.75
  }, 
  {
    "id": 5189287, 
    "name": "артём стрельбицкий", 
    "photo": "http://cs636529.vk.me/v636529287/5054/3rtigbe3wuc.jpg", 
    "pred": 1, 
    "proba": 0.75
  }, 
  {
    "id": 5457800, 
    "name": "михаил владов", 
    "photo": "http://cs623927.vk.me/v623927800/7b04/n08obkcods4.jpg", 
    "pred": 1, 
    "proba": 0.75
  }, 
  {
    "id": 5599863, 
    "name": "артём луканин", 
    "photo": "http://cs836133.vk.me/v836133863/1c33/e9ksqsnoape.jpg", 
    "pred": 1, 
    "proba": 0.75
  }, 
  {
    "id": 9181136, 
    "name": "андрей новиченко", 
    "photo": "http://cs626227.vk.me/v626227136/240f9/0kvt_jheq8c.jpg", 
    "pred": 1, 
    "proba": 0.75
  }, 
  {
    "id": 63583530, 
    "name": "андрей абрамов", 
    "photo": "http://cs626916.vk.me/v626916530/27c91/s_npbfkpwj8.jpg", 
    "pred": 1, 
    "proba": 0.75
  }, 
  {
    "id": 144178, 
    "name": "слава куликов", 
    "photo": "http://cs622622.vk.me/v622622178/3db1f/a6kcucv88qe.jpg", 
    "pred": 1, 
    "proba": 0.69999999999999996
  }, 
  {
    "id": 384331, 
    "name": "евгений медведев", 
    "photo": "http://cs637930.vk.me/v637930331/bd0d/qzpqtgm-yna.jpg", 
    "pred": 1, 
    "proba": 0.69999999999999996
  }, 
  {
    "id": 3334026, 
    "name": "кирилл кокшаров", 
    "photo": "http://cs623326.vk.me/v623326026/448eb/uhpwnk31omu.jpg", 
    "pred": 1, 
    "proba": 0.69999999999999996
  }, 
  {
    "id": 4818860, 
    "name": "евгений любов", 
    "photo": "http://cs624030.vk.me/v624030860/4f856/898upjbu_kg.jpg", 
    "pred": 1, 
    "proba": 0.69999999999999996
  }, 
  {
    "id": 116533994, 
    "name": "дима кроликов", 
    "photo": "http://cs636329.vk.me/v636329994/1db4d/fbzpm9q1zam.jpg", 
    "pred": 1, 
    "proba": 0.69999999999999996
  }, 
  {
    "id": 128092029, 
    "name": "павел кузнецов", 
    "photo": "http://cs628022.vk.me/v628022029/3df85/sg9h1tji9pk.jpg", 
    "pred": 1, 
    "proba": 0.69999999999999996
  }, 
  {
    "id": 155550042, 
    "name": "александр якимов", 
    "photo": "http://cs633621.vk.me/v633621042/14bd0/uiogbivvpl4.jpg", 
    "pred": 1, 
    "proba": 0.69999999999999996
  }, 
  {
    "id": 208549, 
    "name": "даня пастухов", 
    "photo": "http://cs320722.vk.me/v320722549/386b/wsjq_m8yp1o.jpg", 
    "pred": 1, 
    "proba": 0.65000000000000002
  }, 
  {
    "id": 850502, 
    "name": "виталий протасов", 
    "photo": "http://cs837239.vk.me/v837239502/1782/7nssjt4dr_o.jpg", 
    "pred": 1, 
    "proba": 0.65000000000000002
  }, 
  {
    "id": 3061206, 
    "name": "руслан сафин", 
    "photo": "http://cs629412.vk.me/v629412206/2c4f7/qy7oidywsgq.jpg", 
    "pred": 1, 
    "proba": 0.65000000000000002
  }, 
  {
    "id": 6129170, 
    "name": "артем артемов", 
    "photo": "http://cs636718.vk.me/v636718170/25004/zcszglv5k5u.jpg", 
    "pred": 1, 
    "proba": 0.65000000000000002
  }, 
  {
    "id": 16415972, 
    "name": "миша шкитов", 
    "photo": "http://cs626622.vk.me/v626622972/f4a7/m7py__xpwdy.jpg", 
    "pred": 1, 
    "proba": 0.65000000000000002
  }, 
  {
    "id": 18279563, 
    "name": "александр лузин", 
    "photo": "http://cs629524.vk.me/v629524563/47189/7yjrlba0xwe.jpg", 
    "pred": 1, 
    "proba": 0.65000000000000002
  }, 
  {
    "id": 31990989, 
    "name": "алексей богданов", 
    "photo": "http://cs625228.vk.me/v625228989/4e937/e_i8u9kw11y.jpg", 
    "pred": 1, 
    "proba": 0.65000000000000002
  }, 
  {
    "id": 374045, 
    "name": "денис козин", 
    "photo": "http://cs200.vk.me/u374045/d_5aa8d916.jpg", 
    "pred": 1, 
    "proba": 0.59999999999999998
  }, 
  {
    "id": 1640233, 
    "name": "антон фомин", 
    "photo": "http://cs636327.vk.me/v636327233/284ac/rzkmdijrt5q.jpg", 
    "pred": 1, 
    "proba": 0.59999999999999998
  }, 
  {
    "id": 1756157, 
    "name": "иван кожевников", 
    "photo": "http://cs626429.vk.me/v626429157/7acf/60_yduizda0.jpg", 
    "pred": 1, 
    "proba": 0.59999999999999998
  }, 
  {
    "id": 3698319, 
    "name": "илья шибанов", 
    "photo": "http://cs628416.vk.me/v628416319/20886/ukktheo1smw.jpg", 
    "pred": 1, 
    "proba": 0.59999999999999998
  }, 
  {
    "id": 8029744, 
    "name": "александр lert", 
    "photo": "http://cs5716.vk.me/v5716744/656/vixwejdq7lc.jpg", 
    "pred": 1, 
    "proba": 0.59999999999999998
  }, 
  {
    "id": 41843229, 
    "name": "дамир шаймухаметов", 
    "photo": "http://cs633231.vk.me/v633231229/32242/5gg9etuhjhk.jpg", 
    "pred": 1, 
    "proba": 0.59999999999999998
  }, 
  {
    "id": 361161497, 
    "name": "stanislav gardarika", 
    "photo": "https://pp.vk.me/c633129/v633129497/32fbc/hnh3nhbpvfc.jpg", 
    "pred": 1, 
    "proba": 0.59999999999999998
  }, 
  {
    "id": 1467781, 
    "name": "владимир зотов", 
    "photo": "http://cs624631.vk.me/v624631781/3e9ef/i-libfni0og.jpg", 
    "pred": 1, 
    "proba": 0.55000000000000004
  }, 
  {
    "id": 6305250, 
    "name": "артур муслимов", 
    "photo": "http://cs616324.vk.me/v616324250/13de5/mklex_7qogu.jpg", 
    "pred": 1, 
    "proba": 0.55000000000000004
  }, 
  {
    "id": 311539484, 
    "name": "нурлан садыков", 
    "photo": "http://cs630421.vk.me/v630421484/4d3cf/ap1j4f_zfqk.jpg", 
    "pred": 1, 
    "proba": 0.55000000000000004
  }, 
  {
    "id": 97425, 
    "name": "дмитрий рогожников", 
    "photo": "http://cs9320.vk.me/u97425/d_b2e0a599.jpg", 
    "pred": 0, 
    "proba": 0.5
  }, 
  {
    "id": 2314509, 
    "name": "никита моргунов", 
    "photo": "http://cs623422.vk.me/v623422509/225ef/powfh11uxko.jpg", 
    "pred": 0, 
    "proba": 0.5
  }, 
  {
    "id": 38485392, 
    "name": "антон владимирович", 
    "photo": "http://cs4176.vk.me/u38485392/d_54c55574.jpg", 
    "pred": 0, 
    "proba": 0.5
  }, 
  {
    "id": 58222471, 
    "name": "ленар ысманов", 
    "photo": "http://cs630928.vk.me/v630928471/1f0a9/kvipsuqbb8g.jpg", 
    "pred": 0, 
    "proba": 0.5
  }, 
  {
    "id": 153187992, 
    "name": "максим айткалиев", 
    "photo": "http://cs616218.vk.me/v616218992/186b2/xrrl4xpue9m.jpg", 
    "pred": 0, 
    "proba": 0.5
  }, 
  {
    "id": 197464269, 
    "name": "олег томилин", 
    "photo": "http://cs621420.vk.me/v621420269/b2f6/my5tgnwpwqa.jpg", 
    "pred": 0, 
    "proba": 0.5
  }, 
  {
    "id": 326886063, 
    "name": "федор гамбалев", 
    "photo": "http://cs627921.vk.me/v627921063/41662/kx30tzgxtxi.jpg", 
    "pred": 0, 
    "proba": 0.5
  }, 
  {
    "id": 805552, 
    "name": "вячеслав стеблецов", 
    "photo": "https://vk.com/images/deactivated_100.png", 
    "pred": 0, 
    "proba": 0.49823391520614352
  }, 
  {
    "id": 1671994, 
    "name": "иван битюков", 
    "photo": "https://vk.com/images/deactivated_100.png", 
    "pred": 0, 
    "proba": 0.49823391520614352
  }, 
  {
    "id": 3969348, 
    "name": "никита гожедрянов", 
    "photo": "https://vk.com/images/deactivated_100.png", 
    "pred": 0, 
    "proba": 0.49823391520614352
  }, 
  {
    "id": 407177351, 
    "name": "andrec milano", 
    "photo": "https://pp.vk.me/c639516/v639516351/16a/ro1rmt9b4nu.jpg", 
    "pred": 0, 
    "proba": 0.48250000000000004
  }, 
  {
    "id": 31839, 
    "name": "витя кудрявцев", 
    "photo": "http://cs629228.vk.me/v629228839/10070/3mdru-fimf0.jpg", 
    "pred": 0, 
    "proba": 0.45000000000000001
  }, 
  {
    "id": 528243, 
    "name": "владимир поляков", 
    "photo": "http://cs316223.vk.me/v316223243/7943/ugzxkkahpqc.jpg", 
    "pred": 0, 
    "proba": 0.45000000000000001
  }, 
  {
    "id": 4395658, 
    "name": "николай кирш", 
    "photo": "http://cs631821.vk.me/v631821658/28e01/__ddjua7rqu.jpg", 
    "pred": 0, 
    "proba": 0.45000000000000001
  }, 
  {
    "id": 5080147, 
    "name": "мурад кадыров", 
    "photo": "http://cs543107.vk.me/v543107147/18782/eroosh2n8kw.jpg", 
    "pred": 0, 
    "proba": 0.45000000000000001
  }, 
  {
    "id": 137063171, 
    "name": "игорь ветер", 
    "photo": "http://cs405325.vk.me/u137063171/d_1eecbc78.jpg", 
    "pred": 0, 
    "proba": 0.45000000000000001
  }, 
  {
    "id": 350580210, 
    "name": "àngel mateu-lo", 
    "photo": "http://vk.com/images/camera_100.png", 
    "pred": 0, 
    "proba": 0.44561050061050056
  }, 
  {
    "id": 5668096, 
    "name": "виктор мухачев", 
    "photo": "http://vk.com/images/camera_100.png", 
    "pred": 0, 
    "proba": 0.43988531935754766
  }, 
  {
    "id": 792120, 
    "name": "иван портнов", 
    "photo": "http://cs9953.vk.me/u792120/d_56ac7192.jpg", 
    "pred": 0, 
    "proba": 0.40000000000000002
  }, 
  {
    "id": 2445971, 
    "name": "павел заставницкий", 
    "photo": "http://cs311717.vk.me/v311717971/997a/xahqtsytalk.jpg", 
    "pred": 0, 
    "proba": 0.34999999999999998
  }, 
  {
    "id": 10878032, 
    "name": "владимир маслов", 
    "photo": "http://cs630231.vk.me/v630231032/34d0c/j69zt0a7h9e.jpg", 
    "pred": 0, 
    "proba": 0.34999999999999998
  }, 
  {
    "id": 3253741, 
    "name": "андрей алимов", 
    "photo": "http://cs9510.vk.me/u3253741/d_98b4538c.jpg", 
    "pred": 0, 
    "proba": 0.29999999999999999
  }, 
  {
    "id": 6658389, 
    "name": "герман осьмак", 
    "photo": "http://cs637431.vk.me/v637431389/e3af/olw-tq2ssem.jpg", 
    "pred": 0, 
    "proba": 0.29999999999999999
  }, 
  {
    "id": 2427749, 
    "name": "денис корнещук", 
    "photo": "http://cs319518.vk.me/v319518749/3ba1/uqbva_fasfk.jpg", 
    "pred": 0, 
    "proba": 0.25
  }, 
  {
    "id": 5926110, 
    "name": "andrei polzounov", 
    "photo": "http://cs622030.vk.me/v622030110/45e52/emu9mne1ee8.jpg", 
    "pred": 0, 
    "proba": 0.25
  }, 
  {
    "id": 38090634, 
    "name": "newrlan mauletjanovich", 
    "photo": "http://cs618526.vk.me/v618526634/8b1f/ora7z9ef6yq.jpg", 
    "pred": 0, 
    "proba": 0.25
  }, 
  {
    "id": 145548148, 
    "name": "таузбег кадыров", 
    "photo": "http://cs625131.vk.me/v625131148/23f65/bp-0lnzgoay.jpg", 
    "pred": 0, 
    "proba": 0.25
  }, 
  {
    "id": 114298, 
    "name": "саня раков", 
    "photo": "http://cs407817.vk.me/u114298/d_a4b73dc3.jpg", 
    "pred": 0, 
    "proba": 0.20000000000000001
  }, 
  {
    "id": 14831391, 
    "name": "про вайк", 
    "photo": "http://cs623417.vk.me/v623417391/467e5/ssavuvikoza.jpg", 
    "pred": 0, 
    "proba": 0.20000000000000001
  }, 
  {
    "id": 322959896, 
    "name": "petrus holmes", 
    "photo": "http://cs604720.vk.me/v604720896/de41/1_rptkpw2iq.jpg", 
    "pred": 0, 
    "proba": 0.1825
  }, 
  {
    "id": 5116593, 
    "name": "murat makhat", 
    "photo": "http://cs625824.vk.me/v625824593/2e446/jr6xj1zvehy.jpg", 
    "pred": 0, 
    "proba": 0.14999999999999999
  }, 
  {
    "id": 7294763, 
    "name": "иван субботин", 
    "photo": "http://cs625423.vk.me/v625423763/34773/cjlwaov4sxm.jpg", 
    "pred": 0, 
    "proba": 0.14999999999999999
  }, 
  {
    "id": 6103316, 
    "name": "жека румынский", 
    "photo": "http://cs630622.vk.me/v630622316/55c87/u_96ftwok48.jpg", 
    "pred": 0, 
    "proba": 0.10000000000000001
  }, 
  {
    "id": 15759027, 
    "name": "василий куделькин", 
    "photo": "http://cs633927.vk.me/v633927027/33004/oerznhoccsa.jpg", 
    "pred": 0, 
    "proba": 0.10000000000000001
  }, 
  {
    "id": 314556136, 
    "name": "вадим назаров", 
    "photo": "http://cs629113.vk.me/v629113136/a07b/wbbpsibx5qc.jpg", 
    "pred": 0, 
    "proba": 0.10000000000000001
  }, 
  {
    "id": 1843192, 
    "name": "дмитрий батурин", 
    "photo": "http://cs623117.vk.me/v623117192/41944/kn861nxd7x0.jpg", 
    "pred": 0, 
    "proba": 0.050000000000000003
  }, 
  {
    "id": 2050903, 
    "name": "сергей терпугов", 
    "photo": "http://cs405824.vk.me/v405824903/5ed9/qfyc7mnqdya.jpg", 
    "pred": 0, 
    "proba": 0.050000000000000003
  }, 
  {
    "id": 13287672, 
    "name": "виктор василенко", 
    "photo": "http://cs636624.vk.me/v636624672/b5f0/_i-0w6mtvua.jpg", 
    "pred": 0, 
    "proba": 0.050000000000000003
  }, 
  {
    "id": 14634861, 
    "name": "бачинин евген", 
    "photo": "http://cs315725.vk.me/v315725861/9719/kjctkdinccq.jpg", 
    "pred": 0, 
    "proba": 0.050000000000000003
  }, 
  {
    "id": 25601232, 
    "name": "ильназ хабиров", 
    "photo": "http://cs836622.vk.me/v836622232/255d/st4nb5ituro.jpg", 
    "pred": 0, 
    "proba": 0.050000000000000003
  }, 
  {
    "id": 205239904, 
    "name": "нияз шибаев", 
    "photo": "http://cs633929.vk.me/v633929904/17586/6pnjsitez8y.jpg", 
    "pred": 0, 
    "proba": 0.050000000000000003
  }, 
  {
    "id": 17255655, 
    "name": "валерий чурбанов", 
    "photo": "http://cs10697.vk.me/v10697655/a35/ivb7lfgvzca.jpg", 
    "pred": 0, 
    "proba": 0.0
  }, 
  {
    "id": 42212528, 
    "name": "александр сазонов", 
    "photo": "http://cs629421.vk.me/v629421528/3241a/saff63k5llw.jpg", 
    "pred": 0, 
    "proba": 0.0
  }
]
